{
	"division":"874076",
	"oauth": {
		"refresh_token":"f2DL!IAAAALZChxOhdUaax6PPNYuj-dEwLbQLZ7AJ4_VcUsRNXqPYsQAAAAH8bn9sy1euptpm6FOObDdkYObodvheGRP4FNQpDJIG7kVKKKnv01t5tSXzD6hWEFKHqEUUKDOFCVPv287f_6y9CFTbWUAC3XvIRQ5n09G_vzUSs3GymweDiwsvWY2-BmY9vGpcwioo7VAyL2lijRDyiBW3GmVJ390sYJRkgsq1BRxrJ0Jw_f8GVAl4L_nvd7TnPcYq9IBp4EKaO0knFU34UtfJPYs8-DHL-a5snSUnig",
		"access_token":"gAAAAGNLhIfGpEjHJG4czF1qOSIoD5fCQ1lEfhTq9IMeZkdwRPBDX5WUVdOE44QEpcVduQNd0mXYxmjLDTlpHxJ8o2Ljj9p0qXHDJCKRArnS67ham2WhdugWAOdhqP6w3dGPiikEKiIP8-1s5wVmpbwU1N_WUgTiZrUWa8QAJbqRf28iJAEAAIAAAAAck1oYMdGV8lFFqkWAZGrzCxoWBJ9-nX5kv4YvjYYTuOpoIJ0QkyyxXYkiv-mpGS-JLg1HN8JYDDU8qdax30MinzhKnzEVSMCIWobWY5lO8CT3O-6Rbo-QiCHRc2xYrzVD7gSZVCGm9xrTCmhHpRxY1kr949yPA9NfHcYgk3NT1EEGmfxxDF-Rdr9x1K2aBsHv0gl1ZPjnCJyASBJ2JkwJC8SoUgo9br8fiXXbhza-llPikWJGNV1DWDoZQaM6KZ_dUWOvIwsIyG4gEZEEXQFZ8xz1eZenZVQK_CrXZe7Ot3WG_4EGp82st9wzoR2c9k_KI93wYFbD2DwBlOQKEvb4Zrali74KLLuapxLQlWl-KXsCgvANHeGCeyVDWaWv4uc"
	}
}